Extract Experimental Data by Variable from agroclimR Data Workbook — extract_obs_var • agroclimR
…
# Extract phenological data for the "oryza" model
phenological_data <- extract_obs_var(obs_data, "phen", model = "oryza")
print(phenological_data)
#> # A tibble: 21 × 4
#>    exp_file               data             var   value
#>    <chr>                  <list>           <chr> <dbl>
#>  1 SDTO_FED2000_MADRI_S1  <tibble [5 × 2]> IDAT     51
#>  2 SDTO_FED2000_MADRI_S1  <tibble [5 × 2]> FDAT     81
#>  3 SDTO_FED2000_MADRI_S1  <tibble [5 × 2]> MDAT    104
#>  4 SDTO_FED2000_MADRII_S1 <tibble [5 × 2]> IDAT     48
#>  5 SDTO_FED2000_MADRII_S1 <tibble [5 × 2]> FDAT     85
#>  6 SDTO_FED2000_MADRII_S1 <tibble [5 × 2]> MDAT    115
#>  7 SDTO_FED2000_MADRI_S2  <tibble [5 × 2]> IDAT     49
#>  8 SDTO_FED2000_MADRI_S2  <tibble [5 × 2]> FDAT     85
#>  9 SDTO_FED2000_MADRI_S2  <tibble [5 × 2]> MDAT    105
#> 10 SDTO_FED2000_MADRII_S2 <tibble [5 × 2]> IDAT     40
#> # ℹ 11 more rows
…
