Estructura de Datos para Modelación de Cultivos con agroclimR • agroclimR
…
ID de Localidad (LOC_ID): Indica la ubicación del
ensayo. Ejemplo: “LOC1”.

ID de Proyecto (PROJECT): Asocia el ensayo con un
proyecto específico. Ejemplo: “PROJ1”.

Nombre del Cultivar (CULTIVAR): Especifica el cultivar
de planta utilizado en el ensayo. Ejemplo: “CULTIVAR1”.

Número de Tratamiento (TR_N): Ejemplo: “T1”.

# Código de ejemplo para mostrar las primeras filas del conjunto de datos AGRO
# Asumiendo que 'agro' es el conjunto de datos cargado con agroclimR
head(agro)
#> # A tibble: 6 × 12
#>   ID         LOC_ID PROJECT CULTIVAR TR_N    LAT  LONG   ALT PDAT       CROP_SYS
#>   <chr>      <chr>  <chr>   <chr>    <chr> <dbl> <dbl> <dbl> <date>     <chr>   
#> 1 SDTOS1MAD… SDTO   MADRI   FED2000  S1     3.91 -75.0   415 2013-04-29 IRRIGAT…
#> 2 SDTOS1MAD… SDTO   MADRII  FED2000  S1     3.91 -75.0   415 2015-06-05 IRRIGAT…
#> 3 SDTOS2MAD… SDTO   MADRI   FED2000  S2     3.91 -75.0   415 2013-12-05 IRRIGAT…
#> 4 SDTOS2MAD… SDTO   MADRII  FED2000  S2     3.91 -75.0   415 2015-11-03 IRRIGAT…
#> # ℹ 2 more rows
#> # ℹ 2 more variables: ESTAB <chr>, NPLDS <dbl>
…
K
Potassium
numeric
kg/ha
% of fertilizer

# Código de ejemplo para mostrar las primeras filas del conjunto de datos FERT
# Asumiendo que 'fertil' es el conjunto de datos cargado con agroclimR
head(fertil)
#> # A tibble: 6 × 8
#>   ID          LOC_ID CULTIVAR FERT_No   DDE     N     P     K
#>   <chr>       <chr>  <chr>      <dbl> <dbl> <dbl> <dbl> <dbl>
#> 1 SDTOS1MADRI SDTO   FED2000        1    10  42    21.5    33
#> 2 SDTOS1MADRI SDTO   FED2000        2    23  58     1.5    33
#> 3 SDTOS1MADRI SDTO   FED2000        3    38  56.5   0      30
#> 4 SDTOS1MADRI SDTO   FED2000        4    52  51.2   0      15
#> # ℹ 2 more rows
…
MDAT
Maturity date
date
MM/DD/YYYY
Harvest date - 7 days
Link

# Código de ejemplo para mostrar las primeras filas del conjunto de datos PHEN
# Asumiendo que 'phenol' es el conjunto de datos cargado con agroclimR
head(phenol)
#> # A tibble: 6 × 8
#>   ID      LOC_ID CULTIVAR PDAT       EDAT       IDAT       FDAT       MDAT      
#>   <chr>   <chr>  <chr>    <date>     <date>     <date>     <date>     <date>    
#> 1 SDTOS1… SDTO   FED2000  2013-04-29 2013-05-08 2013-06-28 2013-07-28 2013-08-27
#> 2 SDTOS1… SDTO   FED2000  2015-06-05 2015-06-14 2015-08-01 2015-09-07 2015-10-14
#> 3 SDTOS2… SDTO   FED2000  2013-12-05 2013-12-12 2014-01-30 2014-03-07 2014-04-03
#> 4 SDTOS2… SDTO   FED2000  2015-11-03 2015-11-12 2015-12-22 2016-01-23 2016-02-26
#> # ℹ 2 more rows
…
NP_SE
NP Standard Error
numeric
number/m²

# Código de ejemplo para mostrar las primeras filas del conjunto de datos PLANT
# Asumiendo que 'plant' es el conjunto de datos cargado con agroclimR
head(plant)
#> # A tibble: 6 × 22
#>   ID      LOC_ID CULTIVAR SAMPLING_DATE WLVG_OBS WLVG_SE LAI_OBS LAI_SE WLVD_OBS
#>   <chr>   <chr>  <chr>    <date>           <dbl>   <dbl>   <dbl>  <dbl>    <dbl>
#> 1 SDTOS1… SDTO   FED2000  2013-05-21        316.    20.4      NA     NA      0  
#> 2 SDTOS1… SDTO   FED2000  2013-05-28        544.   122.       NA     NA      0  
#> 3 SDTOS1… SDTO   FED2000  2013-06-07        752.   168.       NA     NA     38.1
#> 4 SDTOS1… SDTO   FED2000  2013-06-12        816.   169.       NA     NA     36.3
#> # ℹ 2 more rows
#> # ℹ 13 more variables: WLVD_SE <dbl>, WST_OBS <dbl>, WST_SE <dbl>,
#> #   WSO_OBS <dbl>, WSO_SE <dbl>, WAGT_OBS <dbl>, WAGT_SE <dbl>, NLV_OBS <lgl>,
#> #   NLV_SE <lgl>, NST_OBS <lgl>, NST_SE <lgl>, NP_OBS <lgl>, NP_SE <lgl>
…
GF_PAN_SE
GF_PAN Standard Error
numeric
number/panicle

# Código de ejemplo para mostrar las primeras filas del conjunto de datos YIELD
# Asumiendo que 'yield' es el conjunto de datos cargado con agroclimR
head(yield)
#> # A tibble: 6 × 20
#>   ID        LOC_ID CULTIVAR YIELD_AVG YIELD_MIN YIELD_MAX  HIAM HIAM_SE PAN_fert
#>   <chr>     <chr>  <chr>        <dbl>     <dbl>     <dbl> <dbl>   <dbl>    <dbl>
#> 1 SDTOS1MA… SDTO   FED2000      8103.     7331.     8931. 0.335 8.90e-3     88.9
#> 2 SDTOS2MA… SDTO   FED2000      4474.     3795.     5244. 0.300 5.65e-4     95.5
#> 3 SDTOS3MA… SDTO   FED2000      5032.     4247.     5951. 0.305 2.95e-3     92.9
#> 4 SDTOS3COL SDTO   FED2000      4935.     4403.     5365. 0.415 1.19e-2     88.5
#> # ℹ 2 more rows
#> # ℹ 11 more variables: PAN_fert_SE <dbl>, GW1000 <dbl>, GW1000_SE <dbl>,
#> #   ST_M2 <dbl>, ST_M2_SE <dbl>, PAN_M2 <dbl>, PAN_M2_SE <dbl>, GT_PAN <dbl>,
#> #   GT_PAN_SE <dbl>, GF_PAN <dbl>, GF_PAN_SE <dbl>
…
SSKS
Saturated hydraulic conductivity
numeric
cm/h

Link

# Código de ejemplo para mostrar las primeras filas del conjunto de datos SOIL
# Asumiendo que 'soil' es el conjunto de datos cargado con agroclimR
head(soil)
#> # A tibble: 6 × 22
#>   ID       TR_N  PROJECT SAMPLING_DATE    NL DEPTH STC    SAND  SILT  CLAY  SBDM
#>   <chr>    <chr> <chr>   <date>        <dbl> <dbl> <chr> <dbl> <dbl> <dbl> <dbl>
#> 1 SDTOS1M… S1    MADRI   2013-05-10        1    20 Lo     39.2  45.6  15.2  1.53
#> 2 SDTOS1M… S1    MADRI   2013-05-10        2    20 Lo     37.9  46.9  15.2  1.71
#> 3 SDTOS1M… S1    MADRI   2013-05-10        3    20 Lo     40.3  44.5  15.2  1.66
#> 4 SDTOS1M… S1    MADRII  2015-08-10        1    20 SaLo   70.9  17.6  11.6  1.40
#> # ℹ 2 more rows
#> # ℹ 11 more variables: SC <dbl>, SLON <dbl>, SNH4 <dbl>, SNO3 <dbl>, PH <dbl>,
#> #   SCEC <dbl>, WCST <dbl>, WCFC <dbl>, WCWP <dbl>, WCAD <dbl>, SSKS <dbl>
…
WSPD
Wind Speed
numeric
m/s

Link

# Código de ejemplo para mostrar las primeras filas del conjunto de datos WTH
# Asumiendo que 'weather' es el conjunto de datos cargado con agroclimR
head(weather)
#> # A tibble: 6 × 6
#>   DATE        TMAX  TMIN  RAIN  SRAD  RHUM
#>   <date>     <dbl> <dbl> <dbl> <dbl> <dbl>
#> 1 2013-01-01  36.0  25.7   0    20.9  66.3
#> 2 2013-01-02  35.7  25.1   0.2  21.6  73.3
#> 3 2013-01-03  38.5  24.0   0    23.1  61.4
#> 4 2013-01-04  35.7  22.9   0    21.4  68.9
#> # ℹ 2 more rows
…
