Estructura_de_Datos_para_Modelación_de_Cultivos_con_agroclimR • agroclimR
…
SBDUR
Seed-bed duration
numeric
days

TRDAT
Transplanting date
date
MM/DD/YYYY

Link

head(agro)
#> # A tibble: 6 × 12
#>   ID         LOC_ID PROJECT CULTIVAR TR_N    LAT  LONG   ALT PDAT       CROP_SYS
#>   <chr>      <chr>  <chr>   <chr>    <chr> <dbl> <dbl> <dbl> <date>     <chr>   
#> 1 SDTOS1MAD… SDTO   MADRI   FED2000  S1     3.91 -75.0   415 2013-04-29 IRRIGAT…
#> 2 SDTOS1MAD… SDTO   MADRII  FED2000  S1     3.91 -75.0   415 2015-06-05 IRRIGAT…
#> 3 SDTOS2MAD… SDTO   MADRI   FED2000  S2     3.91 -75.0   415 2013-12-05 IRRIGAT…
#> 4 SDTOS2MAD… SDTO   MADRII  FED2000  S2     3.91 -75.0   415 2015-11-03 IRRIGAT…
#> # ℹ 2 more rows
#> # ℹ 2 more variables: ESTAB <chr>, NPLDS <dbl>
…
